1 10 20
100 200 125
201 210 89
900 1000 174
10 1 20
2 2 2
1 1 1
434329 438893 400
704510 704511 243
234222 779998 509
151743 487555 449
112889 217880 386
345990 45114 443
477709 357952 449
182291 372533 443
398658 156955 443
586645 146352 470
654543 865290 525
110293 630511 509
105430 525970 470
952182 502945 525
237584 994068 525
62406 8974 340
501654 376760 449
638378 480942 509
373695 487465 449
633106 354097 509
562893 65085 470
101785 647731 509
404367 104695 443
70767 208740 383
914105 231653 525
843031 482850 525
697339 321475 509
512301 317263 470
45579 997446 525
225241 751601 509
347570 894134 525
494845 348683 449
422341 718304 509
201743 477933 449
366777 885677 525
748438 25479 509
516540 102370 470
151297 596119 470
840102 878586 432
475207 651934 509
346887 423348 449
423896 203798 449
551338 720395 509
881675 854244 432
285678 287575 327
904737 454096 525
358910 666845 509
259389 344310 407
497773 231943 449
544651 590014 452
556797 602205 434
486792 520088 470
196019 663628 509
65001 869927 525
347401 152221 443
621640 424367 470
347497 151392 443
164823 20313 383
35380 171108 383
925939 602579 525
388024 956772 525
898664 445386 525
796476 871031 525
550524 903749 525
142086 915804 525
950371 193766 525
255874 447665 449
947813 156065 525
136946 132148 344
164691 335174 443
663045 146383 509
521677 212199 470
182147 148789 383
224310 437413 449
469586 836611 509
40506 920030 525
399999 184013 443
731370 921318 525
678028 962268 525
579925 31742 470
356081 14189 443
277709 70267 443
570353 263636 470
408368 762595 509
878086 556532 525
951831 870648 507
392876 60093 443
656250 361559 509
951609 179457 525
393294 757755 509
163887 994803 525
758062 779826 468
775455 266931 509
713612 233196 509
62695 444620 449
278928 952557 525
394112 863187 525
128089 670407 509
511433 103170 449
191318 373702 443
74041 988143 525
22002 559963 470
681871 892355 525
287962 855559 525
591929 44331 470
266947 235083 407
156455 995644 525
344967 646052 509
370330 130664 443
186510 772412 509
332423 242664 407
6473 458762 449
238724 106120 443
947566 380586 525
192213 597983 470
989278 974991 427
114915 161250 383
310057 887568 525
910955 577258 525
572209 360781 470
424987 307128 449
534330 399309 470
387885 678245 509
549079 702813 509
418821 603424 470
502308 987322 525
104502 543718 470
51486 315764 443
66256 412544 449
32966 846007 525
809205 272037 509
235771 754548 509
893252 417896 525
393011 466940 449
727990 504838 509
770581 514303 509
664031 629350 429
61839 577552 470
687346 324223 509
814270 125488 509
701625 838721 525
378570 817764 509
122974 393196 443
875382 357668 525
418458 3784 449
928699 223968 525
992428 332541 525
518373 613847 452
938058 516350 525
809339 446418 509
313704 852089 525
598715 134764 470
235677 630315 509
491221 919347 525
581625 365507 470
744405 371368 509
98642 114688 354
31500 35234 311
986467 606855 525
107374 551243 470
763375 540356 509
679944 623944 509
743720 337796 509
454783 900338 525
892797 691864 525
890310 363964 525
500111 112350 449
844986 781097 525
600900 1127 470
518596 746507 509
920462 783257 525
169556 364038 443
398775 591545 470
631896 552511 509
824271 823992 251
764810 119751 509
228913 286157 443
316032 114617 443
934831 863891 476
113406 116272 349
376846 679024 509
706136 591475 509
864740 622576 525
923298 470551 525
126906 141254 344
322558 527561 470
820339 206647 509
887293 984283 507
531018 242652 470
310877 253358 407
214725 120689 383
861988 592804 525
681647 767290 504
533188 823505 509
175001 736751 509
748597 893964 525
907412 891849 445
915572 296396 525
470662 891273 525
616730 185180 470
406140 904157 525
385341 751574 509
302603 678338 509
