720610 689599 504
911130 764205 525
102160 244989 443
58838 532008 470
797658 513146 509
638745 185631 509
309768 769399 509
982933 745053 525
555196 372419 470
942792 605531 525
87250 39574 351
220525 322507 443
679214 591781 509
598344 379730 470
296946 770918 509
18150 587063 470
7803 814125 509
757836 937951 525
269259 120526 443
465241 73200 449
51800 888830 525
118868 761742 509
395084 56210 443
931865 599975 525
976503 386389 525
135685 311137 443
671954 815194 504
119842 111417 349
33940 219024 386
549706 263400 470
946785 117590 525
242924 652334 509
337652 89468 443
848516 667351 525
541309 599037 452
276876 304967 389
542397 784349 509
752184 992546 525
868505 332229 525
276275 916796 525
698966 233800 509
542684 831037 509
486462 76355 449
249163 566102 470
42887 689199 509
939668 910841 507
830828 227373 509
177935 900833 525
28592 482663 449
396186 355049 436
735077 13036 509
10967 926829 525
397589 376209 436
843797 855740 419
718518 328433 509
741843 390651 509
139981 947101 525
170950 903129 525
766148 547453 509
162387 988624 525
635597 97104 509
107605 44218 354
921277 7934 525
172240 245176 443
694598 583452 509
592307 818331 509
345316 544779 470
141157 964208 525
768726 803155 468
376603 152394 443
980215 503440 525
709358 83609 509
857050 241323 525
257871 444744 449
678479 276761 509
307291 234063 407
591023 753605 509
185378 192893 360
356260 91840 443
121717 865199 525
340000 340655 304
962596 563186 525
293385 390959 441
59693 563136 470
980138 705672 525
835609 606817 509
746651 590741 509
64957 182468 383
609205 345392 470
356966 39675 443
375209 439028 449
759809 117477 509
513888 639833 509
641775 309741 509
145028 447812 449
783668 297843 509
846532 207470 525
521378 888645 525
752349 454747 509
203907 142912 383
299668 148155 443
360865 320446 441
632984 904623 525
287597 8868 443
487877 921087 525
153089 696561 509
724547 859732 525
270729 352086 441
575081 742049 509
202854 30648 383
57548 678576 509
246110 667706 509
453670 352657 449
925201 180705 525
682162 545094 509
457430 477227 444
452900 983006 525
16364 928773 525
229833 603953 470
604725 772235 509
22651 528662 470
282686 81702 443
900794 123239 525
916879 815628 525
672235 593694 509
450537 701311 509
337355 637616 509
251544 183250 443
569060 559276 421
851697 283140 525
81205 845408 525
300428 676709 509
71248 206951 383
546039 222031 470
239325 931259 525
135333 862166 525
752973 478278 509
356266 153187 443
107437 181570 383
9001 991069 525
520677 124166 470
79039 382555 443
723652 239559 509
973643 859094 507
389838 948733 525
648598 669424 442
281401 167257 443
448908 613885 470
804737 132023 509
965218 420640 525
274791 551193 470
95220 603490 470
968140 981863 458
47371 324173 443
365842 775383 509
431862 956760 525
647682 980324 525
201107 299450 443
123850 103743 354
137542 909057 525
393814 905877 525
791505 267669 509
501540 973692 525
753877 203726 509
415985 434263 418
442874 202581 449
312444 957042 525
112640 573342 470
293190 835553 509
26539 97266 351
1307 798349 509
334721 916451 525
156157 491202 449
184253 57279 383
506707 235946 449
875220 112248 525
725468 627396 504
448658 934782 525
388155 270315 441
751979 877919 525
70028 91392 351
720718 242014 509
769299 844066 525
73951 209817 383
373563 457363 449
120385 787351 509
965979 810959 525
800443 514038 509
515566 329728 470
935177 912753 476
790826 398885 509
181229 469702 449
440444 239780 449
799640 878479 525
830708 292102 509
612899 777350 509
534443 168795 470
76152 948523 525
480869 336202 449
32654 923512 525
817236 953954 525
683629 153600 509
350206 570793 470
180460 962706 525
513504 24924 470
884115 91796 525
66791 282122 443
548794 559857 421
132641 735258 509
270120 817118 509
772931 900554 525
564739 881238 525
474769 125267 449
347969 759957 509
979950 30656 525
995485 791937 525
358235 905043 525
528623 398907 470
135600 129508 344
315725 33037 443
856470 656285 525
453213 843624 525
30892 808950 509
122700 911339 525
460033 565322 470
989299 301693 525
883972 395863 525
759421 396845 509
683730 205082 509
15845 769772 509
475241 675983 509
202044 336036 443
739861 427884 509
893441 730342 525
496999 285723 449
400534 389404 405
60551 391376 443
140579 153856 375
350814 609693 470
87921 511705 449
452662 678454 509
188817 818444 509
222640 839112 525
533000 340869 470
267457 303253 407
848853 163224 525
136671 134770 344
453578 602702 470
226849 260452 443
879463 364360 525
61448 73319 330
35067 216531 386
132210 831203 509
869339 121556 525
87421 146168 375
152774 93249 375
744496 876428 525
684532 992516 525
472629 974919 525
283942 660897 509
934880 200499 525
5616 153159 375
836200 612271 509
925088 934804 476
581662 489994 470
357655 967806 525
985379 728920 525
873813 541587 525
522782 405278 470
820365 868324 525
357713 830725 509
82814 580328 470
180645 953405 525
337910 797851 509
509009 285161 449
758725 837186 468
41814 328848 443
382935 287530 441
976279 107484 525
373547 462689 449
90900 385448 443
815476 999127 525
617438 401949 470
107626 124026 349
191634 539591 470
714449 410728 509
648085 508230 509
127689 560200 470
906519 111333 525
43884 185227 383
621029 679030 509
622865 485457 470
925254 977598 507
330350 90111 443
424633 73738 449
907466 248278 525
489952 771721 509
667074 360726 509
180302 3604 383
825152 185990 509
